{
  "images" : [
    {
      "filename" : "start-detail-white~universal@1x.png",
      "idiom" : "universal",
      "scale" : "1x"
    },
    {
      "scale" : "2x",
      "filename" : "start-detail-white~universal@2x.png",
      "idiom" : "universal"
    },
    {
      "idiom" : "universal",
      "scale" : "3x",
      "filename" : "start-detail-white~universal@3x.png"
    }
  ],
  "info" : {
    "author" : "xcode",
    "version" : 1
  }
}